{
  "levels": [
    {
      "level": "default",
      "mode": "default",
      "rows": [
        [
          {
            "strings": [
              "q"
            ]
          },
          {
            "strings": [
              "w"
            ]
          },
          {
            "strings": [
              "e",
              "é",
              "è",
              "ê",
              "ë",
              "ė"
            ]
          },
          {
            "strings": [
              "r"
            ]
          },
          {
            "strings": [
              "t"
            ]
          },
          {
            "strings": [
              "z"
            ]
          },
          {
            "strings": [
              "u",
              "û",
              "ù",
              "ú",
              "ū"
            ]
          },
          {
            "strings": [
              "i"
            ]
          },
          {
            "strings": [
              "o",
              "ô",
              "ò",
              "ó",
              "õ",
              "œ",
              "ø",
              "ō"
            ]
          },
          {
            "strings": [
              "p"
            ]
          },
          {
            "strings": [
              "ü"
            ]
          }
        ],
        [
          {
            "strings": [
              "a",
              "â",
              "à",
              "á",
              "æ",
              "ã",
              "å",
              "ā"
            ]
          },
          {
            "strings": [
              "s",
              "ß",
              "ś",
              "š"
            ]
          },
          {
            "strings": [
              "d"
            ]
          },
          {
            "strings": [
              "f"
            ]
          },
          {
            "strings": [
              "g"
            ]
          },
          {
            "strings": [
              "h"
            ]
          },
          {
            "strings": [
              "j"
            ]
          },
          {
            "strings": [
              "k"
            ]
          },
          {
            "strings": [
              "l"
            ]
          },
          {
            "strings": [
              "ö"
            ]
          },
          {
            "strings": [
              "ä"
            ]
          }
        ],
        [
          {
            "action": "levelSwitch",
            "iconName": "keyboard-shift-symbolic",
            "level": "shift",
            "width": 1.66,
            "rightOffset": 0.34
          },
          {
            "strings": [
              "y"
            ]
          },
          {
            "strings": [
              "x"
            ]
          },
          {
            "strings": [
              "c"
            ]
          },
          {
            "strings": [
              "v"
            ]
          },
          {
            "strings": [
              "b"
            ]
          },
          {
            "strings": [
              "n",
              "ñ",
              "ń"
            ]
          },
          {
            "strings": [
              "m"
            ]
          },
          {
            "action": "delete",
            "iconName": "edit-clear-symbolic",
            "width": 1.66,
            "leftOffset": 0.34
          }
        ],
        [
          {
            "action": "levelSwitch",
            "label": "123",
            "level": "opt",
            "width": 1.5
          },
          {
            "action": "emoji",
            "iconName": "smile-symbolic"
          },
          {
            "strings": [
              ","
            ]
          },
          {
            "strings": [
              " "
            ],
            "width": 3
          },
          {
            "strings": [
              ".",
              "#",
              "!",
              ",",
              "?",
              "-",
              ":",
              "'",
              "@"
            ]
          },
          {
            "action": "languageMenu",
            "iconName": "keyboard-layout-symbolic"
          },
          {
            "iconName": "keyboard-enter-symbolic",
            "keyval": "0xff0d",
            "width": 1.5
          }
        ]
      ]
    },
    {
      "level": "shift",
      "mode": "latched",
      "rows": [
        [
          {
            "strings": [
              "Q"
            ]
          },
          {
            "strings": [
              "W"
            ]
          },
          {
            "strings": [
              "E",
              "É",
              "È",
              "Ê",
              "Ë",
              "Ė"
            ]
          },
          {
            "strings": [
              "R"
            ]
          },
          {
            "strings": [
              "T"
            ]
          },
          {
            "strings": [
              "Z"
            ]
          },
          {
            "strings": [
              "U",
              "Û",
              "Ù",
              "Ú",
              "Ū"
            ]
          },
          {
            "strings": [
              "I"
            ]
          },
          {
            "strings": [
              "O",
              "Ô",
              "Ò",
              "Ó",
              "Õ",
              "Œ",
              "Ø",
              "Ō"
            ]
          },
          {
            "strings": [
              "P"
            ]
          },
          {
            "strings": [
              "Ü"
            ]
          }
        ],
        [
          {
            "strings": [
              "A",
              "Â",
              "À",
              "Á",
              "Æ",
              "Ã",
              "Å",
              "Ā"
            ]
          },
          {
            "strings": [
              "S",
              "SS",
              "Ś",
              "Š"
            ]
          },
          {
            "strings": [
              "D"
            ]
          },
          {
            "strings": [
              "F"
            ]
          },
          {
            "strings": [
              "G"
            ]
          },
          {
            "strings": [
              "H"
            ]
          },
          {
            "strings": [
              "J"
            ]
          },
          {
            "strings": [
              "K"
            ]
          },
          {
            "strings": [
              "L"
            ]
          },
          {
            "strings": [
              "Ö"
            ]
          },
          {
            "strings": [
              "Ä"
            ]
          }
        ],
        [
          {
            "action": "levelSwitch",
            "iconName": "keyboard-shift-symbolic",
            "level": "default",
            "width": 1.66,
            "rightOffset": 0.34
          },
          {
            "strings": [
              "Y"
            ]
          },
          {
            "strings": [
              "X"
            ]
          },
          {
            "strings": [
              "C"
            ]
          },
          {
            "strings": [
              "V"
            ]
          },
          {
            "strings": [
              "B"
            ]
          },
          {
            "strings": [
              "N",
              "Ñ",
              "Ń"
            ]
          },
          {
            "strings": [
              "M"
            ]
          },
          {
            "action": "delete",
            "iconName": "edit-clear-symbolic",
            "width": 1.66,
            "leftOffset": 0.34
          }
        ],
        [
          {
            "action": "levelSwitch",
            "label": "123",
            "level": "opt",
            "width": 1.5
          },
          {
            "action": "emoji",
            "iconName": "smile-symbolic"
          },
          {
            "strings": [
              ","
            ]
          },
          {
            "strings": [
              " "
            ],
            "width": 3
          },
          {
            "strings": [
              ".",
              "#",
              "!",
              ",",
              "?",
              "-",
              ":",
              "'",
              "@"
            ]
          },
          {
            "action": "languageMenu",
            "iconName": "keyboard-layout-symbolic"
          },
          {
            "iconName": "keyboard-enter-symbolic",
            "keyval": "0xff0d",
            "width": 1.5
          }
        ]
      ]
    },
    {
      "level": "opt",
      "mode": "locked",
      "rows": [
        [
          {
            "strings": [
              "1",
              "¹",
              "½",
              "⅓",
              "¼",
              "⅛"
            ]
          },
          {
            "strings": [
              "2",
              "²",
              "⅔"
            ]
          },
          {
            "strings": [
              "3",
              "³",
              "¾",
              "⅜"
            ]
          },
          {
            "strings": [
              "4",
              "⁴"
            ]
          },
          {
            "strings": [
              "5",
              "⅝"
            ]
          },
          {
            "strings": [
              "6"
            ]
          },
          {
            "strings": [
              "7",
              "⅞"
            ]
          },
          {
            "strings": [
              "8"
            ]
          },
          {
            "strings": [
              "9"
            ]
          },
          {
            "strings": [
              "0",
              "ⁿ",
              "∅"
            ]
          }
        ],
        [
          {
            "strings": [
              "@"
            ]
          },
          {
            "strings": [
              "#"
            ]
          },
          {
            "strings": [
              "€",
              "¢",
              "£",
              "$",
              "¥",
              "₱"
            ]
          },
          {
            "strings": [
              "%",
              "‰"
            ]
          },
          {
            "strings": [
              "&"
            ]
          },
          {
            "strings": [
              "-",
              "_",
              "–",
              "—",
              "·"
            ]
          },
          {
            "strings": [
              "+",
              "±"
            ]
          },
          {
            "strings": [
              "(",
              "<",
              "{",
              "["
            ]
          },
          {
            "strings": [
              ")",
              ">",
              "}",
              "]"
            ]
          },
          {
            "strings": [
              "/"
            ]
          }
        ],
        [
          {
            "action": "levelSwitch",
            "label": "=/<",
            "level": "opt+shift",
            "width": 1.5
          },
          {
            "strings": [
              "*",
              "†",
              "‡",
              "★"
            ]
          },
          {
            "strings": [
              "\"",
              "“",
              "”",
              "«",
              "»"
            ]
          },
          {
            "strings": [
              "'",
              "‘",
              "’",
              "‹",
              "›"
            ]
          },
          {
            "strings": [
              ":"
            ]
          },
          {
            "strings": [
              ";"
            ]
          },
          {
            "strings": [
              "!",
              "¡"
            ]
          },
          {
            "strings": [
              "?",
              "¿"
            ]
          },
          {
            "action": "delete",
            "iconName": "edit-clear-symbolic",
            "width": 1.5
          }
        ],
        [
          {
            "action": "levelSwitch",
            "label": "ABC",
            "level": "default",
            "width": 1.5
          },
          {
            "action": "emoji",
            "iconName": "smile-symbolic"
          },
          {
            "strings": [
              ","
            ]
          },
          {
            "strings": [
              " "
            ],
            "width": 3
          },
          {
            "strings": [
              ".",
              "…"
            ]
          },
          {
            "action": "languageMenu",
            "iconName": "keyboard-layout-symbolic"
          },
          {
            "iconName": "keyboard-enter-symbolic",
            "keyval": "0xff0d",
            "width": 1.5
          }
        ]
      ]
    },
    {
      "level": "opt+shift",
      "mode": "locked",
      "rows": [
        [
          {
            "strings": [
              "~"
            ]
          },
          {
            "strings": [
              "`"
            ]
          },
          {
            "strings": [
              "|"
            ]
          },
          {
            "strings": [
              "•",
              "♪",
              "♥",
              "♠",
              "♦",
              "♣"
            ]
          },
          {
            "strings": [
              "√"
            ]
          },
          {
            "strings": [
              "Π",
              "π"
            ]
          },
          {
            "strings": [
              "÷"
            ]
          },
          {
            "strings": [
              "×"
            ]
          },
          {
            "strings": [
              "¶",
              "§"
            ]
          },
          {
            "strings": [
              "∆"
            ]
          }
        ],
        [
          {
            "strings": [
              "£"
            ]
          },
          {
            "strings": [
              "¥"
            ]
          },
          {
            "strings": [
              "$",
              "¢"
            ]
          },
          {
            "strings": [
              "¢"
            ]
          },
          {
            "strings": [
              "^",
              "↑",
              "↓",
              "←",
              "→"
            ]
          },
          {
            "strings": [
              "_"
            ]
          },
          {
            "strings": [
              "=",
              "≠",
              "≈",
              "∞"
            ]
          },
          {
            "strings": [
              "{"
            ]
          },
          {
            "strings": [
              "}"
            ]
          },
          {
            "strings": [
              "\\"
            ]
          }
        ],
        [
          {
            "action": "levelSwitch",
            "label": "123",
            "level": "opt",
            "width": 1.5
          },
          {
            "strings": [
              "°",
              "′",
              "″"
            ]
          },
          {
            "strings": [
              "©"
            ]
          },
          {
            "strings": [
              "®"
            ]
          },
          {
            "strings": [
              "™"
            ]
          },
          {
            "strings": [
              "℅"
            ]
          },
          {
            "strings": [
              "["
            ]
          },
          {
            "strings": [
              "]"
            ]
          },
          {
            "action": "delete",
            "iconName": "edit-clear-symbolic",
            "width": 1.5
          }
        ],
        [
          {
            "action": "levelSwitch",
            "label": "ABC",
            "level": "default",
            "width": 1.5
          },
          {
            "action": "emoji",
            "iconName": "smile-symbolic"
          },
          {
            "strings": [
              "<",
              "‹",
              "≤",
              "«"
            ]
          },
          {
            "strings": [
              " "
            ],
            "width": 3
          },
          {
            "strings": [
              ">",
              "›",
              "≥",
              "»"
            ]
          },
          {
            "action": "languageMenu",
            "iconName": "keyboard-layout-symbolic"
          },
          {
            "iconName": "keyboard-enter-symbolic",
            "keyval": "0xff0d",
            "width": 1.5
          }
        ]
      ]
    }
  ],
  "locale": "de",
  "name": "German"
}
